Chapter 3 Ejercicio 3 | Ejercicios Corte 1
…
names(df)

##  [1] "State" "Code"  "2010"  "2011"  "2012"  "2013"  "2014"  "2015"  "2016" 
## [10] "2017"  "2018"

gather(df, '2010':'2018',
                 key="YEAR",
                 value="POPULATION") -> df_reco

df_reco

## # A tibble: 459 × 4
##    State                Code  YEAR  POPULATION
##    <chr>                <chr> <chr>      <dbl>
##  1 Alabama              AL    2010     4785448
##  2 Alaska               AK    2010      713906
##  3 Arizona              AZ    2010     6407774
##  4 Arkansas             AR    2010     2921978
##  5 California           CA    2010    37320903
##  6 Colorado             CO    2010     5048281
##  7 Connecticut          CT    2010     3579125
##  8 Delaware             DE    2010      899595
##  9 District of Columbia DC    2010      605085
## 10 Florida              FL    2010    18845785
## # ℹ 449 more rows

Unión

unite(df_reco, State_Code, State, Code) -> unite_tb
unite_tb

## # A tibble: 459 × 3
##    State_Code              YEAR  POPULATION
##    <chr>                   <chr>      <dbl>
##  1 Alabama_AL              2010     4785448
##  2 Alaska_AK               2010      713906
##  3 Arizona_AZ              2010     6407774
##  4 Arkansas_AR             2010     2921978
##  5 California_CA           2010    37320903
##  6 Colorado_CO             2010     5048281
##  7 Connecticut_CT          2010     3579125
##  8 Delaware_DE             2010      899595
##  9 District of Columbia_DC 2010      605085
## 10 Florida_FL              2010    18845785
## # ℹ 449 more rows

Separación

separate(unite_tb, "State_Code", into = c("State", "Code")) -> separate_tb

## Warning: Expected 2 pieces. Additional pieces discarded in 99 rows [9, 30, 31, 32, 33,
## 34, 35, 40, 41, 42, 49, 60, 81, 82, 83, 84, 85, 86, 91, 92, ...].

separate_tb

## # A tibble: 459 × 4
##    State       Code  YEAR  POPULATION
##    <chr>       <chr> <chr>      <dbl>
##  1 Alabama     AL    2010     4785448
##  2 Alaska      AK    2010      713906
##  3 Arizona     AZ    2010     6407774
##  4 Arkansas    AR    2010     2921978
##  5 California  CA    2010    37320903
##  6 Colorado    CO    2010     5048281
##  7 Connecticut CT    2010     3579125
##  8 Delaware    DE    2010      899595
##  9 District    of    2010      605085
## 10 Florida     FL    2010    18845785
## # ℹ 449 more rows
